Master en Big Data. Fundamentos Matemáticos del Análisis de Datos (FMAD). Tarea 2
…
tidy_who %>%
  group_by(country) %>%
  summarize(cases_per_country = sum(cases)) %>%
  arrange(desc(cases_per_country))

## # A tibble: 219 x 2
##    country                          cases_per_country
##    <chr>                                        <int>
##  1 China                                      8389839
##  2 India                                      7098552
##  3 South Africa                               3010272
##  4 Indonesia                                  2909925
##  5 Bangladesh                                 1524034
##  6 Viet Nam                                    965665
##  7 Democratic Republic of the Congo            960902
##  8 Philippines                                 952828
##  9 Russian Federation                          926236
## 10 Pakistan                                    905629
## # ... with 209 more rows
…
